<?xml version="1.0" encoding="utf-8"?>
<!-- Generator: Adobe Illustrator 24.1.0, SVG Export Plug-In  -->
<svg version="1.1" xmlns="http://www.w3.org/2000/svg" xmlns:xlink="http://www.w3.org/1999/xlink" x="0px" y="0px" width="98.63px"
	 height="43.76px" viewBox="0 0 98.63 43.76" style="enable-background:new 0 0 98.63 43.76;" xml:space="preserve">
<style type="text/css">
	.st0{fill:#FFFF00;stroke:#FFFF00;stroke-miterlimit:10;}
</style>
<defs>
</defs>
<g>
	<rect x="0.5" y="0.5" class="st0" width="97.63" height="42.76"/>
	<g>
		<g>
			<path d="M16.57,25.91L33.26,6.85h6.85v19.59h5.53v4.66h-5.53v6.67h-5.8V31.1H16.57V25.91z M34.31,12.39h-0.09L22.63,26.44h11.68
				V12.39z"/>
			<path d="M50.31,6.41h6.59v14.54L72.92,6.41h9.05L67.34,19.15l15.55,18.62h-8.92L62.21,23.32l-5.31,4.7v9.75h-6.59V6.41z"/>
		</g>
	</g>
</g>
</svg>
